%YAML 1.1
%TAG !u! tag:unity3d.com,2011:
--- !u!114 &11400000
MonoBehaviour:
  m_ObjectHideFlags: 0
  m_CorrespondingSourceObject: {fileID: 0}
  m_PrefabInstance: {fileID: 0}
  m_PrefabAsset: {fileID: 0}
  m_GameObject: {fileID: 0}
  m_Enabled: 1
  m_EditorHideFlags: 0
  m_Script: {fileID: 11500000, guid: 15028a0dcfa2d3943b6036b8bdd5f62f, type: 3}
  m_Name: GameSettings
  m_EditorClassIdentifier: 
  gameSettings:
    _androidAdUnitId: Rewarded_Android
    _iOsAdUnitId: Rewarded_iOS
    _androidGameId: 4418223
    _iOsGameId: 4418222
    _testMode: 1
    _enablePerPlacementMode: 1
    rewardForLevel: 50
    CameraMovemetSpeed: 20
    levels:
    - {fileID: 5419320527102655309, guid: 34c9b9ec0306f3e458aa9d530d2e32c0, type: 3}
    - {fileID: 5445200220676119814, guid: 67751f955e54fa54aaeeef6ce9d93815, type: 3}
    - {fileID: 5191133544067270138, guid: aeb106a17104fdd4c9137990a96f85d7, type: 3}
    players:
    - {fileID: 1393571402339023635, guid: f8b262afad5ae2548a96ea685b4f1271, type: 3}
    - {fileID: 3290523018946862130, guid: 880afb870b496294488f38e8e2449ca4, type: 3}
    - {fileID: 3290523018946862130, guid: 880afb870b496294488f38e8e2449ca4, type: 3}
    balls:
    - {fileID: 8787516794238299351, guid: ed13b712571d77e46aaccb607cdc1d82, type: 3}
    - {fileID: 5440576693732963497, guid: 18780b8f4dd17234a8e85b364ae09d0a, type: 3}
    - {fileID: 2463612676383311609, guid: 608451e808a0e63478a4c2a0c8d21dc2, type: 3}
    PrefLevelButton: {fileID: 2827157791281292066, guid: ec23332590ad29046b9ed0e185153b57,
      type: 3}
    pref_areaIndicatort: {fileID: 4401423018337056340, guid: 0433d9ccd644c3545b8e479c3227d841,
      type: 3}
  ballLaunchrSettings:
    rotationSpeed: 1000
    anglelimit: 30
    lastMarker: {fileID: 2463612676383311609, guid: 6c412ef0d82bfc845b7b24ef61e824cb,
      type: 3}
    dummyBall: {fileID: 2463612676383311609, guid: 62c8b828af5ea914a9618501473011b7,
      type: 3}
  enemySettings:
    reflectionHitForce: 50
    reflectionBallForce: 2
